{"media_type":"photo","current_page":1,"total_pages":18,"total_items":357,"comments":[{"id":337895921,"user_id":17352493,"to_whom_user_id":15406737,"body":"Terrific Derek","created_at":"2017-05-05T21:49:42-04:00","parent_id":null,"user":{"id":17352493,"username":"sfbayareaphotos","firstname":"Derek ","lastname":"Burt","city":"San Francisco, CA","country":"USA","usertype":0,"fullname":"Derek  Burt","userpic_url":"https://secure.gravatar.com/avatar/1dad52b048b8f1b88f498a95d956c4e7?s=300&r=g&d=https://pacdn.500px.org/userpic.png","userpic_https_url":"https://secure.gravatar.com/avatar/1dad52b048b8f1b88f498a95d956c4e7?s=300&r=g&d=https://pacdn.500px.org/userpic.png","cover_url":null,"upgrade_status":0,"store_on":false,"affection":0,"followers_count":13,"avatars":{"default":{"https":"https://secure.gravatar.com/avatar/1dad52b048b8f1b88f498a95d956c4e7?s=300&r=g&d=https://pacdn.500px.org/userpic.png"},"large":{"https":"https://secure.gravatar.com/avatar/1dad52b048b8f1b88f498a95d956c4e7?s=100&r=g&d=https://pacdn.500px.org/userpic.png"},"small":{"https":"https://secure.gravatar.com/avatar/1dad52b048b8f1b88f498a95d956c4e7?s=50&r=g&d=https://pacdn.500px.org/userpic.png"},"tiny":{"https":"https://secure.gravatar.com/avatar/1dad52b048b8f1b88f498a95d956c4e7?s=30&r=g&d=https://pacdn.500px.org/userpic.png"}}},"flagged":false,"rating":0},{"id":337895933,"user_id":18777831,"to_whom_user_id":15406737,"body":"That is so beautiful","created_at":"2017-05-05T21:50:35-04:00","parent_id":null,"user":{"id":18777831,"username":"mikethomas3","firstname":null,"lastname":null,"city":null,"country":null,"usertype":0,"fullname":"mikethomas3","userpic_url":"https://secure.gravatar.com/avatar/a257e2dcc5968bb93bfc54ab3935aa7a?s=300&r=g&d=https://pacdn.500px.org/userpic.png","userpic_https_url":"https://secure.gravatar.com/avatar/a257e2dcc5968bb93bfc54ab3935aa7a?s=300&r=g&d=https://pacdn.500px.org/userpic.png","cover_url":null,"upgrade_status":0,"store_on":false,"affection":0,"followers_count":1,"avatars":{"default":{"https":"https://secure.gravatar.com/avatar/a257e2dcc5968bb93bfc54ab3935aa7a?s=300&r=g&d=https://pacdn.500px.org/userpic.png"},"large":{"https":"https://secure.gravatar.com/avatar/a257e2dcc5968bb93bfc54ab3935aa7a?s=100&r=g&d=https://pacdn.500px.org/userpic.png"},"small":{"https":"https://secure.gravatar.com/avatar/a257e2dcc5968bb93bfc54ab3935aa7a?s=50&r=g&d=https://pacdn.500px.org/userpic.png"},"tiny":{"https":"https://secure.gravatar.com/avatar/a257e2dcc5968bb93bfc54ab3935aa7a?s=30&r=g&d=https://pacdn.500px.org/userpic.png"}}},"flagged":false,"rating":0},{"id":337895961,"user_id":18777869,"to_whom_user_id":15406737,"body":"Awesome photo","created_at":"2017-05-05T21:51:22-04:00","parent_id":null,"user":{"id":18777869,"username":"guylash","firstname":null,"lastname":null,"city":null,"country":null,"usertype":0,"fullname":"guylash","userpic_url":"https://secure.gravatar.com/avatar/421acce90856e44313cbf6caad65f7c4?s=300&r=g&d=https://pacdn.500px.org/userpic.png","userpic_https_url":"https://secure.gravatar.com/avatar/421acce90856e44313cbf6caad65f7c4?s=300&r=g&d=https://pacdn.500px.org/userpic.png","cover_url":null,"upgrade_status":0,"store_on":true,"affection":0,"followers_count":2,"avatars":{"default":{"https":"https://secure.gravatar.com/avatar/421acce90856e44313cbf6caad65f7c4?s=300&r=g&d=https://pacdn.500px.org/userpic.png"},"large":{"https":"https://secure.gravatar.com/avatar/421acce90856e44313cbf6caad65f7c4?s=100&r=g&d=https://pacdn.500px.org/userpic.png"},"small":{"https":"https://secure.gravatar.com/avatar/421acce90856e44313cbf6caad65f7c4?s=50&r=g&d=https://pacdn.500px.org/userpic.png"},"tiny":{"https":"https://secure.gravatar.com/avatar/421acce90856e44313cbf6caad65f7c4?s=30&r=g&d=https://pacdn.500px.org/userpic.png"}}},"flagged":false,"rating":0},{"id":337896005,"user_id":17258647,"to_whom_user_id":15406737,"body":"One of my all time favourites","created_at":"2017-05-05T21:52:53-04:00","parent_id":null,"user":{"id":17258647,"username":"lmburdeny","firstname":"Lorrie","lastname":"Burdeny","city":null,"country":null,"usertype":0,"fullname":"Lorrie Burdeny","userpic_url":"https://secure.gravatar.com/avatar/74fb630f9b95e69ed678c5effeab2142?s=300&r=g&d=https://pacdn.500px.org/userpic.png","userpic_https_url":"https://secure.gravatar.com/avatar/74fb630f9b95e69ed678c5effeab2142?s=300&r=g&d=https://pacdn.500px.org/userpic.png","cover_url":null,"upgrade_status":0,"store_on":false,"affection":0,"followers_count":1,"avatars":{"default":{"https":"https://secure.gravatar.com/avatar/74fb630f9b95e69ed678c5effeab2142?s=300&r=g&d=https://pacdn.500px.org/userpic.png"},"large":{"https":"https://secure.gravatar.com/avatar/74fb630f9b95e69ed678c5effeab2142?s=100&r=g&d=https://pacdn.500px.org/userpic.png"},"small":{"https":"https://secure.gravatar.com/avatar/74fb630f9b95e69ed678c5effeab2142?s=50&r=g&d=https://pacdn.500px.org/userpic.png"},"tiny":{"https":"https://secure.gravatar.com/avatar/74fb630f9b95e69ed678c5effeab2142?s=30&r=g&d=https://pacdn.500px.org/userpic.png"}}},"flagged":false,"rating":0},{"id":337896031,"user_id":17353727,"to_whom_user_id":15406737,"body":"unbelievable!!!!","created_at":"2017-05-05T21:53:53-04:00","parent_id":null,"user":{"id":17353727,"username":"dmw25641","firstname":null,"lastname":null,"city":null,"country":null,"usertype":0,"fullname":"dmw25641","userpic_url":"https://secure.gravatar.com/avatar/8612f38ef695197d95d7c65b7ce3aeea?s=300&r=g&d=https://pacdn.500px.org/userpic.png","userpic_https_url":"https://secure.gravatar.com/avatar/8612f38ef695197d95d7c65b7ce3aeea?s=300&r=g&d=https://pacdn.500px.org/userpic.png","cover_url":null,"upgrade_status":0,"store_on":false,"affection":0,"followers_count":0,"not_active":true,"avatars":{"default":{"https":"https://secure.gravatar.com/avatar/8612f38ef695197d95d7c65b7ce3aeea?s=300&r=g&d=https://pacdn.500px.org/userpic.png"},"large":{"https":"https://secure.gravatar.com/avatar/8612f38ef695197d95d7c65b7ce3aeea?s=100&r=g&d=https://pacdn.500px.org/userpic.png"},"small":{"https":"https://secure.gravatar.com/avatar/8612f38ef695197d95d7c65b7ce3aeea?s=50&r=g&d=https://pacdn.500px.org/userpic.png"},"tiny":{"https":"https://secure.gravatar.com/avatar/8612f38ef695197d95d7c65b7ce3aeea?s=30&r=g&d=https://pacdn.500px.org/userpic.png"}}},"flagged":false,"rating":0},{"id":337896047,"user_id":20425517,"to_whom_user_id":15406737,"body":"I love it!!!!!!!!","created_at":"2017-05-05T21:54:32-04:00","parent_id":null,"user":{"id":20425517,"username":"stevesmith30","firstname":"Steve","lastname":"Smith","city":"San Francisco","country":"USA","usertype":0,"fullname":"Steve Smith","userpic_url":"https://secure.gravatar.com/avatar/73252f0c58868d5eced807382dacc795?s=300&r=g&d=https://pacdn.500px.org/userpic.png","userpic_https_url":"https://secure.gravatar.com/avatar/73252f0c58868d5eced807382dacc795?s=300&r=g&d=https://pacdn.500px.org/userpic.png","cover_url":null,"upgrade_status":0,"store_on":false,"affection":0,"followers_count":0,"not_active":true,"avatars":{"default":{"https":"https://secure.gravatar.com/avatar/73252f0c58868d5eced807382dacc795?s=300&r=g&d=https://pacdn.500px.org/userpic.png"},"large":{"https":"https://secure.gravatar.com/avatar/73252f0c58868d5eced807382dacc795?s=100&r=g&d=https://pacdn.500px.org/userpic.png"},"small":{"https":"https://secure.gravatar.com/avatar/73252f0c58868d5eced807382dacc795?s=50&r=g&d=https://pacdn.500px.org/userpic.png"},"tiny":{"https":"https://secure.gravatar.com/avatar/73252f0c58868d5eced807382dacc795?s=30&r=g&d=https://pacdn.500px.org/userpic.png"}}},"flagged":false,"rating":0},{"id":337896059,"user_id":15406737,"to_whom_user_id":15406737,"body":"Greatly appreciate your comment . I am very pleased that you are enjoying these photos, my friend. Thanks for your support. Kindest regards.....Derek","created_at":"2017-05-05T21:55:10-04:00","parent_id":337895921,"user":{"id":15406737,"username":"dburdeny","firstname":"Derek","lastname":"Burdeny","city":"Omaha","country":"USA","usertype":0,"fullname":"Derek Burdeny","userpic_url":"https://pacdn.500px.org/15406737/756444921d1e18b9206010485febc8e899c7ef6f/1.jpg?3","userpic_https_url":"https://pacdn.500px.org/15406737/756444921d1e18b9206010485febc8e899c7ef6f/1.jpg?3","cover_url":"https://pacdn.500px.org/15406737/756444921d1e18b9206010485febc8e899c7ef6f/cover_2048.jpg?7","upgrade_status":3,"store_on":true,"affection":530024,"followers_count":15768,"avatars":{"default":{"https":"https://pacdn.500px.org/15406737/756444921d1e18b9206010485febc8e899c7ef6f/1.jpg?3"},"large":{"https":"https://pacdn.500px.org/15406737/756444921d1e18b9206010485febc8e899c7ef6f/2.jpg?3"},"small":{"https":"https://pacdn.500px.org/15406737/756444921d1e18b9206010485febc8e899c7ef6f/3.jpg?3"},"tiny":{"https":"https://pacdn.500px.org/15406737/756444921d1e18b9206010485febc8e899c7ef6f/4.jpg?3"}}},"flagged":false,"rating":0},{"id":337896063,"user_id":15406737,"to_whom_user_id":15406737,"body":"Greatly appreciate your comment . I am very pleased that you are enjoying these photos, my friend. Thanks for your support. Kindest regards.....Derek","created_at":"2017-05-05T21:55:16-04:00","parent_id":337895933,"user":{"id":15406737,"username":"dburdeny","firstname":"Derek","lastname":"Burdeny","city":"Omaha","country":"USA","usertype":0,"fullname":"Derek Burdeny","userpic_url":"https://pacdn.500px.org/15406737/756444921d1e18b9206010485febc8e899c7ef6f/1.jpg?3","userpic_https_url":"https://pacdn.500px.org/15406737/756444921d1e18b9206010485febc8e899c7ef6f/1.jpg?3","cover_url":"https://pacdn.500px.org/15406737/756444921d1e18b9206010485febc8e899c7ef6f/cover_2048.jpg?7","upgrade_status":3,"store_on":true,"affection":530024,"followers_count":15768,"avatars":{"default":{"https":"https://pacdn.500px.org/15406737/756444921d1e18b9206010485febc8e899c7ef6f/1.jpg?3"},"large":{"https":"https://pacdn.500px.org/15406737/756444921d1e18b9206010485febc8e899c7ef6f/2.jpg?3"},"small":{"https":"https://pacdn.500px.org/15406737/756444921d1e18b9206010485febc8e899c7ef6f/3.jpg?3"},"tiny":{"https":"https://pacdn.500px.org/15406737/756444921d1e18b9206010485febc8e899c7ef6f/4.jpg?3"}}},"flagged":false,"rating":0},{"id":337896065,"user_id":15406737,"to_whom_user_id":15406737,"body":"Greatly appreciate your comment . I am very pleased that you are enjoying these photos, my friend. Thanks for your support. Kindest regards.....Derek","created_at":"2017-05-05T21:55:21-04:00","parent_id":337895961,"user":{"id":15406737,"username":"dburdeny","firstname":"Derek","lastname":"Burdeny","city":"Omaha","country":"USA","usertype":0,"fullname":"Derek Burdeny","userpic_url":"https://pacdn.500px.org/15406737/756444921d1e18b9206010485febc8e899c7ef6f/1.jpg?3","userpic_https_url":"https://pacdn.500px.org/15406737/756444921d1e18b9206010485febc8e899c7ef6f/1.jpg?3","cover_url":"https://pacdn.500px.org/15406737/756444921d1e18b9206010485febc8e899c7ef6f/cover_2048.jpg?7","upgrade_status":3,"store_on":true,"affection":530024,"followers_count":15768,"avatars":{"default":{"https":"https://pacdn.500px.org/15406737/756444921d1e18b9206010485febc8e899c7ef6f/1.jpg?3"},"large":{"https":"https://pacdn.500px.org/15406737/756444921d1e18b9206010485febc8e899c7ef6f/2.jpg?3"},"small":{"https":"https://pacdn.500px.org/15406737/756444921d1e18b9206010485febc8e899c7ef6f/3.jpg?3"},"tiny":{"https":"https://pacdn.500px.org/15406737/756444921d1e18b9206010485febc8e899c7ef6f/4.jpg?3"}}},"flagged":false,"rating":0},{"id":337896069,"user_id":15406737,"to_whom_user_id":15406737,"body":"Greatly appreciate your comment . I am very pleased that you are enjoying these photos, my friend. Thanks for your support. Kindest regards.....Derek","created_at":"2017-05-05T21:55:26-04:00","parent_id":337896005,"user":{"id":15406737,"username":"dburdeny","firstname":"Derek","lastname":"Burdeny","city":"Omaha","country":"USA","usertype":0,"fullname":"Derek Burdeny","userpic_url":"https://pacdn.500px.org/15406737/756444921d1e18b9206010485febc8e899c7ef6f/1.jpg?3","userpic_https_url":"https://pacdn.500px.org/15406737/756444921d1e18b9206010485febc8e899c7ef6f/1.jpg?3","cover_url":"https://pacdn.500px.org/15406737/756444921d1e18b9206010485febc8e899c7ef6f/cover_2048.jpg?7","upgrade_status":3,"store_on":true,"affection":530024,"followers_count":15768,"avatars":{"default":{"https":"https://pacdn.500px.org/15406737/756444921d1e18b9206010485febc8e899c7ef6f/1.jpg?3"},"large":{"https":"https://pacdn.500px.org/15406737/756444921d1e18b9206010485febc8e899c7ef6f/2.jpg?3"},"small":{"https":"https://pacdn.500px.org/15406737/756444921d1e18b9206010485febc8e899c7ef6f/3.jpg?3"},"tiny":{"https":"https://pacdn.500px.org/15406737/756444921d1e18b9206010485febc8e899c7ef6f/4.jpg?3"}}},"flagged":false,"rating":0},{"id":337896071,"user_id":10298255,"to_whom_user_id":15406737,"body":"incredible shot!","created_at":"2017-05-05T21:55:29-04:00","parent_id":null,"user":{"id":10298255,"username":"kevinreynolds_sunrise","firstname":"Kevin Reynolds -","lastname":"Sunrise Addict","city":"","country":"United States","usertype":0,"fullname":"Kevin Reynolds - Sunrise Addict","userpic_url":"https://pacdn.500px.org/10298255/922756899f499a9184bcc6a9696d8a379a4d1b34/1.jpg?3","userpic_https_url":"https://pacdn.500px.org/10298255/922756899f499a9184bcc6a9696d8a379a4d1b34/1.jpg?3","cover_url":"https://pacdn.500px.org/10298255/922756899f499a9184bcc6a9696d8a379a4d1b34/cover_2048.jpg?68","upgrade_status":3,"store_on":true,"affection":93823,"followers_count":2585,"avatars":{"default":{"https":"https://pacdn.500px.org/10298255/922756899f499a9184bcc6a9696d8a379a4d1b34/1.jpg?3"},"large":{"https":"https://pacdn.500px.org/10298255/922756899f499a9184bcc6a9696d8a379a4d1b34/2.jpg?3"},"small":{"https":"https://pacdn.500px.org/10298255/922756899f499a9184bcc6a9696d8a379a4d1b34/3.jpg?3"},"tiny":{"https":"https://pacdn.500px.org/10298255/922756899f499a9184bcc6a9696d8a379a4d1b34/4.jpg?3"}}},"flagged":false,"rating":0},{"id":337896073,"user_id":15406737,"to_whom_user_id":15406737,"body":"Greatly appreciate your comment . I am very pleased that you are enjoying these photos, my friend. Thanks for your support. Kindest regards.....Derek","created_at":"2017-05-05T21:55:30-04:00","parent_id":337896031,"user":{"id":15406737,"username":"dburdeny","firstname":"Derek","lastname":"Burdeny","city":"Omaha","country":"USA","usertype":0,"fullname":"Derek Burdeny","userpic_url":"https://pacdn.500px.org/15406737/756444921d1e18b9206010485febc8e899c7ef6f/1.jpg?3","userpic_https_url":"https://pacdn.500px.org/15406737/756444921d1e18b9206010485febc8e899c7ef6f/1.jpg?3","cover_url":"https://pacdn.500px.org/15406737/756444921d1e18b9206010485febc8e899c7ef6f/cover_2048.jpg?7","upgrade_status":3,"store_on":true,"affection":530024,"followers_count":15768,"avatars":{"default":{"https":"https://pacdn.500px.org/15406737/756444921d1e18b9206010485febc8e899c7ef6f/1.jpg?3"},"large":{"https":"https://pacdn.500px.org/15406737/756444921d1e18b9206010485febc8e899c7ef6f/2.jpg?3"},"small":{"https":"https://pacdn.500px.org/15406737/756444921d1e18b9206010485febc8e899c7ef6f/3.jpg?3"},"tiny":{"https":"https://pacdn.500px.org/15406737/756444921d1e18b9206010485febc8e899c7ef6f/4.jpg?3"}}},"flagged":false,"rating":0},{"id":337896075,"user_id":15406737,"to_whom_user_id":15406737,"body":"Greatly appreciate your comment . I am very pleased that you are enjoying these photos, my friend. Thanks for your support. Kindest regards.....Derek","created_at":"2017-05-05T21:55:34-04:00","parent_id":337896047,"user":{"id":15406737,"username":"dburdeny","firstname":"Derek","lastname":"Burdeny","city":"Omaha","country":"USA","usertype":0,"fullname":"Derek Burdeny","userpic_url":"https://pacdn.500px.org/15406737/756444921d1e18b9206010485febc8e899c7ef6f/1.jpg?3","userpic_https_url":"https://pacdn.500px.org/15406737/756444921d1e18b9206010485febc8e899c7ef6f/1.jpg?3","cover_url":"https://pacdn.500px.org/15406737/756444921d1e18b9206010485febc8e899c7ef6f/cover_2048.jpg?7","upgrade_status":3,"store_on":true,"affection":530024,"followers_count":15768,"avatars":{"default":{"https":"https://pacdn.500px.org/15406737/756444921d1e18b9206010485febc8e899c7ef6f/1.jpg?3"},"large":{"https":"https://pacdn.500px.org/15406737/756444921d1e18b9206010485febc8e899c7ef6f/2.jpg?3"},"small":{"https":"https://pacdn.500px.org/15406737/756444921d1e18b9206010485febc8e899c7ef6f/3.jpg?3"},"tiny":{"https":"https://pacdn.500px.org/15406737/756444921d1e18b9206010485febc8e899c7ef6f/4.jpg?3"}}},"flagged":false,"rating":0},{"id":337896211,"user_id":15406737,"to_whom_user_id":15406737,"body":"Greatly appreciate your comment, Kevin\n . I am very pleased that you are enjoying these photos, my friend. Thanks for your support. Kindest regards.....Derek","created_at":"2017-05-05T22:00:30-04:00","parent_id":337896071,"user":{"id":15406737,"username":"dburdeny","firstname":"Derek","lastname":"Burdeny","city":"Omaha","country":"USA","usertype":0,"fullname":"Derek Burdeny","userpic_url":"https://pacdn.500px.org/15406737/756444921d1e18b9206010485febc8e899c7ef6f/1.jpg?3","userpic_https_url":"https://pacdn.500px.org/15406737/756444921d1e18b9206010485febc8e899c7ef6f/1.jpg?3","cover_url":"https://pacdn.500px.org/15406737/756444921d1e18b9206010485febc8e899c7ef6f/cover_2048.jpg?7","upgrade_status":3,"store_on":true,"affection":530024,"followers_count":15768,"avatars":{"default":{"https":"https://pacdn.500px.org/15406737/756444921d1e18b9206010485febc8e899c7ef6f/1.jpg?3"},"large":{"https":"https://pacdn.500px.org/15406737/756444921d1e18b9206010485febc8e899c7ef6f/2.jpg?3"},"small":{"https":"https://pacdn.500px.org/15406737/756444921d1e18b9206010485febc8e899c7ef6f/3.jpg?3"},"tiny":{"https":"https://pacdn.500px.org/15406737/756444921d1e18b9206010485febc8e899c7ef6f/4.jpg?3"}}},"flagged":false,"rating":0},{"id":337896255,"user_id":777028,"to_whom_user_id":15406737,"body":"Oh my god what a supercell!\nIt's beautiful!!\n\nI live in Sweden, luckily we don't have tornadoes here, but i'd sure love to see one someday if i visit the U.S.\nSpectacular!\nThanks for sharing this masterpiece of art! \nBest, Mattias","created_at":"2017-05-05T22:02:09-04:00","parent_id":null,"user":{"id":777028,"username":"xposure","firstname":"Mattias","lastname":"Holter","city":"Arvika","country":"Sweden","usertype":0,"fullname":"Mattias Holter","userpic_url":"https://pacdn.500px.org/777028/5a414154039b51b1f38deb2fcb30366c3dd6daf7/1.jpg?27","userpic_https_url":"https://pacdn.500px.org/777028/5a414154039b51b1f38deb2fcb30366c3dd6daf7/1.jpg?27","cover_url":"https://pacdn.500px.org/777028/5a414154039b51b1f38deb2fcb30366c3dd6daf7/cover_original.jpg?3","upgrade_status":0,"store_on":false,"affection":79567,"followers_count":5662,"avatars":{"default":{"https":"https://pacdn.500px.org/777028/5a414154039b51b1f38deb2fcb30366c3dd6daf7/1.jpg?27"},"large":{"https":"https://pacdn.500px.org/777028/5a414154039b51b1f38deb2fcb30366c3dd6daf7/2.jpg?27"},"small":{"https":"https://pacdn.500px.org/777028/5a414154039b51b1f38deb2fcb30366c3dd6daf7/3.jpg?27"},"tiny":{"https":"https://pacdn.500px.org/777028/5a414154039b51b1f38deb2fcb30366c3dd6daf7/4.jpg?27"}}},"flagged":false,"rating":0},{"id":337896285,"user_id":15406737,"to_whom_user_id":15406737,"body":"Greatly appreciate your comment, Mattias\n . I am very pleased that you are enjoying these photos, my friend. Thanks for your support. Kindest regards.....Derek","created_at":"2017-05-05T22:03:02-04:00","parent_id":337896255,"user":{"id":15406737,"username":"dburdeny","firstname":"Derek","lastname":"Burdeny","city":"Omaha","country":"USA","usertype":0,"fullname":"Derek Burdeny","userpic_url":"https://pacdn.500px.org/15406737/756444921d1e18b9206010485febc8e899c7ef6f/1.jpg?3","userpic_https_url":"https://pacdn.500px.org/15406737/756444921d1e18b9206010485febc8e899c7ef6f/1.jpg?3","cover_url":"https://pacdn.500px.org/15406737/756444921d1e18b9206010485febc8e899c7ef6f/cover_2048.jpg?7","upgrade_status":3,"store_on":true,"affection":530024,"followers_count":15768,"avatars":{"default":{"https":"https://pacdn.500px.org/15406737/756444921d1e18b9206010485febc8e899c7ef6f/1.jpg?3"},"large":{"https":"https://pacdn.500px.org/15406737/756444921d1e18b9206010485febc8e899c7ef6f/2.jpg?3"},"small":{"https":"https://pacdn.500px.org/15406737/756444921d1e18b9206010485febc8e899c7ef6f/3.jpg?3"},"tiny":{"https":"https://pacdn.500px.org/15406737/756444921d1e18b9206010485febc8e899c7ef6f/4.jpg?3"}}},"flagged":false,"rating":0},{"id":337896411,"user_id":285074,"to_whom_user_id":15406737,"body":"Phenomenal awesomeness!","created_at":"2017-05-05T22:07:51-04:00","parent_id":null,"user":{"id":285074,"username":"Rob_Hannon","firstname":"Rob","lastname":"Hannon","city":"London","country":"Canada","usertype":0,"fullname":"Rob Hannon","userpic_url":"https://pacdn.500px.org/285074/94dd05ef532c77aa3852bb9528f1b16d2150b8d5/1.jpg?11","userpic_https_url":"https://pacdn.500px.org/285074/94dd05ef532c77aa3852bb9528f1b16d2150b8d5/1.jpg?11","cover_url":"https://pacdn.500px.org/285074/94dd05ef532c77aa3852bb9528f1b16d2150b8d5/cover_2048.jpg?8","upgrade_status":0,"store_on":false,"affection":21259,"followers_count":410,"avatars":{"default":{"https":"https://pacdn.500px.org/285074/94dd05ef532c77aa3852bb9528f1b16d2150b8d5/1.jpg?11"},"large":{"https":"https://pacdn.500px.org/285074/94dd05ef532c77aa3852bb9528f1b16d2150b8d5/2.jpg?11"},"small":{"https":"https://pacdn.500px.org/285074/94dd05ef532c77aa3852bb9528f1b16d2150b8d5/3.jpg?11"},"tiny":{"https":"https://pacdn.500px.org/285074/94dd05ef532c77aa3852bb9528f1b16d2150b8d5/4.jpg?11"}}},"flagged":false,"rating":0},{"id":337896435,"user_id":2765479,"to_whom_user_id":15406737,"body":"Outstanding!!","created_at":"2017-05-05T22:09:05-04:00","parent_id":null,"user":{"id":2765479,"username":"holliden57","firstname":"Denise","lastname":"Holliday","city":"Laurel","country":"United States","usertype":0,"fullname":"Denise Holliday","userpic_url":"https://pacdn.500px.org/2765479/088fc2acfce5afb418bfdc5550958d7d5996530d/1.jpg?4","userpic_https_url":"https://pacdn.500px.org/2765479/088fc2acfce5afb418bfdc5550958d7d5996530d/1.jpg?4","cover_url":"https://pacdn.500px.org/2765479/088fc2acfce5afb418bfdc5550958d7d5996530d/cover_2048.jpg?1","upgrade_status":3,"store_on":true,"affection":32285,"followers_count":901,"avatars":{"default":{"https":"https://pacdn.500px.org/2765479/088fc2acfce5afb418bfdc5550958d7d5996530d/1.jpg?4"},"large":{"https":"https://pacdn.500px.org/2765479/088fc2acfce5afb418bfdc5550958d7d5996530d/2.jpg?4"},"small":{"https":"https://pacdn.500px.org/2765479/088fc2acfce5afb418bfdc5550958d7d5996530d/3.jpg?4"},"tiny":{"https":"https://pacdn.500px.org/2765479/088fc2acfce5afb418bfdc5550958d7d5996530d/4.jpg?4"}}},"flagged":false,"rating":0},{"id":337896823,"user_id":10377911,"to_whom_user_id":15406737,"body":"WOW! ALMOST SURREAL IN IT'S POWER! EXTRAORDINARY!","created_at":"2017-05-05T22:21:10-04:00","parent_id":null,"user":{"id":10377911,"username":"scott125","firstname":"Scott","lastname":"Doyle","city":"SCOTTSDALE, ARIZONA","country":"UNITED STATES","usertype":0,"fullname":"Scott Doyle","userpic_url":"https://pacdn.500px.org/10377911/0f36a827852398f4e3a39f068a52cc20b98ef6f0/1.jpg?1","userpic_https_url":"https://pacdn.500px.org/10377911/0f36a827852398f4e3a39f068a52cc20b98ef6f0/1.jpg?1","cover_url":"https://pacdn.500px.org/10377911/0f36a827852398f4e3a39f068a52cc20b98ef6f0/cover_2048.jpg?42","upgrade_status":3,"store_on":true,"affection":182582,"followers_count":2524,"avatars":{"default":{"https":"https://pacdn.500px.org/10377911/0f36a827852398f4e3a39f068a52cc20b98ef6f0/1.jpg?1"},"large":{"https":"https://pacdn.500px.org/10377911/0f36a827852398f4e3a39f068a52cc20b98ef6f0/2.jpg?1"},"small":{"https":"https://pacdn.500px.org/10377911/0f36a827852398f4e3a39f068a52cc20b98ef6f0/3.jpg?1"},"tiny":{"https":"https://pacdn.500px.org/10377911/0f36a827852398f4e3a39f068a52cc20b98ef6f0/4.jpg?1"}}},"flagged":false,"rating":0},{"id":337897007,"user_id":12412311,"to_whom_user_id":15406737,"body":"Wow amazing shot....!!!","created_at":"2017-05-05T22:28:33-04:00","parent_id":null,"user":{"id":12412311,"username":"SuseendranMaha","firstname":"Suseendran","lastname":"Maha","city":"Current Location : Abu Dhabi","country":"United Arab Emirates","usertype":0,"fullname":"Suseendran Maha","userpic_url":"https://pacdn.500px.org/12412311/00db325e5c321feb6b60814ba8b27359296d3ea1/1.jpg?2","userpic_https_url":"https://pacdn.500px.org/12412311/00db325e5c321feb6b60814ba8b27359296d3ea1/1.jpg?2","cover_url":"https://pacdn.500px.org/12412311/00db325e5c321feb6b60814ba8b27359296d3ea1/cover_2048.jpg?62","upgrade_status":2,"store_on":true,"affection":34037,"followers_count":422,"avatars":{"default":{"https":"https://pacdn.500px.org/12412311/00db325e5c321feb6b60814ba8b27359296d3ea1/1.jpg?2"},"large":{"https":"https://pacdn.500px.org/12412311/00db325e5c321feb6b60814ba8b27359296d3ea1/2.jpg?2"},"small":{"https":"https://pacdn.500px.org/12412311/00db325e5c321feb6b60814ba8b27359296d3ea1/3.jpg?2"},"tiny":{"https":"https://pacdn.500px.org/12412311/00db325e5c321feb6b60814ba8b27359296d3ea1/4.jpg?2"}}},"flagged":false,"rating":0}]}