{"current_page":2,"total_pages":1000,"total_items":50236,"photos":[{"id":212076403,"user_id":2149813,"name":"DOWNWARDS","description":"A morning blue hour fog making its way through the SZR road skylines. sometimes the distortion because of the wide angle lens can create a wonderful mood.\nShot with Zeiss Milvus 15mm on Nikon D5","camera":"NIKON D5","lens":"Zeiss Milvus 2.8/15 ZF.2","focal_length":"15","iso":"100","shutter_speed":"13","aperture":"6.3","times_viewed":13383,"rating":99.7,"status":1,"created_at":"2017-05-15T12:49:36-04:00","category":9,"location":null,"latitude":25.2819542659543,"longitude":55.382080078125,"taken_at":"2016-12-28T07:28:41-05:00","hi_res_uploaded":0,"for_sale":false,"width":5568,"height":3712,"votes_count":1112,"favorites_count":0,"comments_count":29,"nsfw":false,"sales_count":0,"for_sale_date":null,"highest_rating":99.7,"highest_rating_date":"2017-05-15T22:36:50-04:00","license_type":0,"converted":0,"collections_count":63,"crop_version":0,"privacy":false,"profile":true,"image_url":"https://drscdn.500px.org/photo/212076403/q%3D50_w%3D140_h%3D140/18bee21ccd7bddd56db532e7d073ffb5?v=0","images":[{"size":2,"url":"https://drscdn.500px.org/photo/212076403/q%3D50_w%3D140_h%3D140/18bee21ccd7bddd56db532e7d073ffb5?v=0","https_url":"https://drscdn.500px.org/photo/212076403/q%3D50_w%3D140_h%3D140/18bee21ccd7bddd56db532e7d073ffb5?v=0","format":"jpeg"}],"url":"/photo/212076403/downwards-by-dany-eid","positive_votes_count":1112,"converted_bits":0,"watermark":false,"image_format":"jpeg","user":{"id":2149813,"username":"danyeidphotography","firstname":"Dany","lastname":"Eid","city":"Dubai","country":"United Arab Emirates","usertype":0,"fullname":"Dany Eid","userpic_url":"https://pacdn.500px.org/2149813/53cd251e604613199e5854e260a4db19337fb963/1.jpg?5","userpic_https_url":"https://pacdn.500px.org/2149813/53cd251e604613199e5854e260a4db19337fb963/1.jpg?5","cover_url":"https://pacdn.500px.org/2149813/53cd251e604613199e5854e260a4db19337fb963/cover_2048.jpg?70","upgrade_status":3,"store_on":true,"affection":599539,"avatars":{"default":{"https":"https://pacdn.500px.org/2149813/53cd251e604613199e5854e260a4db19337fb963/1.jpg?5"},"large":{"https":"https://pacdn.500px.org/2149813/53cd251e604613199e5854e260a4db19337fb963/2.jpg?5"},"small":{"https":"https://pacdn.500px.org/2149813/53cd251e604613199e5854e260a4db19337fb963/3.jpg?5"},"tiny":{"https":"https://pacdn.500px.org/2149813/53cd251e604613199e5854e260a4db19337fb963/4.jpg?5"}}},"licensing_requested":false,"licensing_suggested":false,"is_free_photo":false},{"id":212066621,"user_id":141796,"name":"Katya","description":"Paid lessons retouching.  Live and video tutorials my retouching techniques and toning in Photoshop and Lightroom\nJoin me on <a href=\"http://www.facebook.com/profile.php?id=100001067928190\">My Facebook Page</a>\nAnd Follow <a href=\"http://instagram.com/georgychernyadyev\">My Instagram</a>\nJoin me on <a href=\"http://vk.com/imwarrior\">My VKontakte Page</a>","camera":null,"lens":null,"focal_length":null,"iso":null,"shutter_speed":null,"aperture":null,"times_viewed":23869,"rating":99.7,"status":1,"created_at":"2017-05-15T11:31:42-04:00","category":4,"location":null,"latitude":55.7879388215649,"longitude":37.5837090576533,"taken_at":null,"hi_res_uploaded":0,"for_sale":false,"width":1600,"height":900,"votes_count":1257,"favorites_count":0,"comments_count":18,"nsfw":true,"sales_count":0,"for_sale_date":null,"highest_rating":99.7,"highest_rating_date":"2017-05-15T18:03:05-04:00","license_type":0,"converted":0,"collections_count":301,"crop_version":0,"privacy":false,"profile":true,"image_url":"https://drscdn.500px.org/photo/212066621/q%3D50_w%3D140_h%3D140/b8d6084ca7f32269707825ca5ab4a4c0?v=0","images":[{"size":2,"url":"https://drscdn.500px.org/photo/212066621/q%3D50_w%3D140_h%3D140/b8d6084ca7f32269707825ca5ab4a4c0?v=0","https_url":"https://drscdn.500px.org/photo/212066621/q%3D50_w%3D140_h%3D140/b8d6084ca7f32269707825ca5ab4a4c0?v=0","format":"jpeg"}],"url":"/photo/212066621/katya-by-%D0%93%D0%B5%D0%BE%D1%80%D0%B3%D0%B8%D0%B9-%D0%A7%D0%B5%D1%80%D0%BD%D1%8F%D0%B4%D1%8C%D0%B5%D0%B2-georgy-chernyadyev-","positive_votes_count":1257,"converted_bits":0,"watermark":false,"image_format":"jpeg","user":{"id":141796,"username":"imwarrior","firstname":"Георгий ","lastname":"Чернядьев (Georgy Chernyadyev)","city":"Москва","country":"Россия","usertype":0,"fullname":"Георгий  Чернядьев (Georgy Chernyadyev)","userpic_url":"https://pacdn.500px.org/141796/c841f9972923eb5e65a1f9a238f7c6f695cabfa8/1.jpg?2","userpic_https_url":"https://pacdn.500px.org/141796/c841f9972923eb5e65a1f9a238f7c6f695cabfa8/1.jpg?2","cover_url":"https://pacdn.500px.org/141796/c841f9972923eb5e65a1f9a238f7c6f695cabfa8/cover_original.jpg?31","upgrade_status":3,"store_on":true,"affection":2827564,"avatars":{"default":{"https":"https://pacdn.500px.org/141796/c841f9972923eb5e65a1f9a238f7c6f695cabfa8/1.jpg?2"},"large":{"https":"https://pacdn.500px.org/141796/c841f9972923eb5e65a1f9a238f7c6f695cabfa8/2.jpg?2"},"small":{"https":"https://pacdn.500px.org/141796/c841f9972923eb5e65a1f9a238f7c6f695cabfa8/3.jpg?2"},"tiny":{"https":"https://pacdn.500px.org/141796/c841f9972923eb5e65a1f9a238f7c6f695cabfa8/4.jpg?2"}}},"licensing_requested":false,"licensing_suggested":false,"is_free_photo":false},{"id":212060249,"user_id":2413057,"name":"Urban Dream # 2","description":"<a href=\"https://www.facebook.com/andrea.comari/\"><img alt=\" Facebook\" src=\"http://videophotoart.com/wp-content/uploads/2017/01/facebook.png\" title=\"Facebook\"></a><a href=\"https://www.facebook.com/videophotoart/\"><img alt=\" Facebook\" src=\"http://videophotoart.com/wp-content/uploads/2017/01/facebook2.png\" title=\"Facebook\"></a><a href=\"http://videophotoart.com/\"><img alt=\"Web\" src=\"http://videophotoart.com/wp-content/uploads/2017/01/Globe-icon.png\" title=\"Web\"></a>","camera":"NIKON D750","lens":"12.0-24.0 mm f/4.5-5.6","focal_length":"14","iso":"800","shutter_speed":"1","aperture":"10","times_viewed":16236,"rating":99.7,"status":1,"created_at":"2017-05-15T10:37:49-04:00","category":24,"location":null,"latitude":45.6495264,"longitude":13.7768182,"taken_at":"2017-05-11T20:30:02-04:00","hi_res_uploaded":1,"for_sale":false,"width":6016,"height":4010,"votes_count":1037,"favorites_count":0,"comments_count":61,"nsfw":false,"sales_count":0,"for_sale_date":null,"highest_rating":99.7,"highest_rating_date":"2017-05-15T22:43:52-04:00","license_type":0,"converted":4,"collections_count":18,"crop_version":0,"privacy":false,"profile":true,"image_url":"https://drscdn.500px.org/photo/212060249/q%3D50_w%3D140_h%3D140/b34c5996bde63d2d1609cbf7425a08e8?v=0","images":[{"size":2,"url":"https://drscdn.500px.org/photo/212060249/q%3D50_w%3D140_h%3D140/b34c5996bde63d2d1609cbf7425a08e8?v=0","https_url":"https://drscdn.500px.org/photo/212060249/q%3D50_w%3D140_h%3D140/b34c5996bde63d2d1609cbf7425a08e8?v=0","format":"jpeg"}],"url":"/photo/212060249/urban-dream-2-by-videophotoart-com","positive_votes_count":1037,"converted_bits":4,"watermark":false,"image_format":"jpeg","user":{"id":2413057,"username":"videophotoart_europe","firstname":"videophotoart","lastname":"com","city":"Trieste","country":"Italy","usertype":0,"fullname":"videophotoart com","userpic_url":"https://pacdn.500px.org/2413057/72be5939919a6a9a9c166509af8c71b994ef5a92/1.jpg?6","userpic_https_url":"https://pacdn.500px.org/2413057/72be5939919a6a9a9c166509af8c71b994ef5a92/1.jpg?6","cover_url":"https://pacdn.500px.org/2413057/72be5939919a6a9a9c166509af8c71b994ef5a92/cover_2048.jpg?19","upgrade_status":4,"store_on":true,"affection":606846,"avatars":{"default":{"https":"https://pacdn.500px.org/2413057/72be5939919a6a9a9c166509af8c71b994ef5a92/1.jpg?6"},"large":{"https":"https://pacdn.500px.org/2413057/72be5939919a6a9a9c166509af8c71b994ef5a92/2.jpg?6"},"small":{"https":"https://pacdn.500px.org/2413057/72be5939919a6a9a9c166509af8c71b994ef5a92/3.jpg?6"},"tiny":{"https":"https://pacdn.500px.org/2413057/72be5939919a6a9a9c166509af8c71b994ef5a92/4.jpg?6"}}},"licensing_requested":false,"licensing_suggested":false,"is_free_photo":false},{"id":212057955,"user_id":2786141,"name":"\" The Red Carpet \"","description":"This work has been published in Digital SLR Photography magazine UK (June 2017 edition, in section Portfolio).\nTaken during a walk through Ilidža alley in Sarajevo. Walking along the path covered with leaves reminded me of a red carpet, while the sound of the leaves underfoot made me think of an audience on either side. In processing I illustrated this symbolism by creatively adjusting the colours.\nNikon D610\nNikkor AF-S 24-70mm f/2.8G ED lens\nExposure: 1/20sec\nf/11\nISO 200","camera":null,"lens":null,"focal_length":null,"iso":null,"shutter_speed":null,"aperture":null,"times_viewed":16983,"rating":99.7,"status":1,"created_at":"2017-05-15T10:21:03-04:00","category":8,"location":null,"latitude":null,"longitude":null,"taken_at":null,"hi_res_uploaded":0,"for_sale":false,"width":3712,"height":5328,"votes_count":1149,"favorites_count":0,"comments_count":17,"nsfw":false,"sales_count":0,"for_sale_date":null,"highest_rating":99.7,"highest_rating_date":"2017-05-15T21:02:53-04:00","license_type":0,"converted":0,"collections_count":39,"crop_version":0,"privacy":false,"profile":true,"image_url":"https://drscdn.500px.org/photo/212057955/q%3D50_w%3D140_h%3D140/9275beb757b5193dd0b2878d6309237b?v=0","images":[{"size":2,"url":"https://drscdn.500px.org/photo/212057955/q%3D50_w%3D140_h%3D140/9275beb757b5193dd0b2878d6309237b?v=0","https_url":"https://drscdn.500px.org/photo/212057955/q%3D50_w%3D140_h%3D140/9275beb757b5193dd0b2878d6309237b?v=0","format":"jpeg"}],"url":"/photo/212057955/-the-red-carpet-by-mevludin-sejmenovic","positive_votes_count":1149,"converted_bits":0,"watermark":true,"image_format":"jpeg","user":{"id":2786141,"username":"SejmenovicMevludin","firstname":"Mevludin","lastname":"Sejmenovic","city":"Sarajevo","country":"Bosnia and Herzegovina","usertype":0,"fullname":"Mevludin Sejmenovic","userpic_url":"https://pacdn.500px.org/2786141/8550bd397c3696cbc9da16aa332894d9296ecca7/1.jpg?5","userpic_https_url":"https://pacdn.500px.org/2786141/8550bd397c3696cbc9da16aa332894d9296ecca7/1.jpg?5","cover_url":"https://pacdn.500px.org/2786141/8550bd397c3696cbc9da16aa332894d9296ecca7/cover_2048.jpg?10","upgrade_status":3,"store_on":true,"affection":991779,"avatars":{"default":{"https":"https://pacdn.500px.org/2786141/8550bd397c3696cbc9da16aa332894d9296ecca7/1.jpg?5"},"large":{"https":"https://pacdn.500px.org/2786141/8550bd397c3696cbc9da16aa332894d9296ecca7/2.jpg?5"},"small":{"https":"https://pacdn.500px.org/2786141/8550bd397c3696cbc9da16aa332894d9296ecca7/3.jpg?5"},"tiny":{"https":"https://pacdn.500px.org/2786141/8550bd397c3696cbc9da16aa332894d9296ecca7/4.jpg?5"}}},"licensing_requested":false,"licensing_suggested":false,"is_free_photo":false},{"id":212055195,"user_id":14026643,"name":"Lofoten Sunset","description":"www.airpixelsmedia.com\nwww.instagram.com/airpixels","camera":null,"lens":null,"focal_length":null,"iso":null,"shutter_speed":null,"aperture":null,"times_viewed":24272,"rating":99.7,"status":1,"created_at":"2017-05-15T09:58:55-04:00","category":8,"location":null,"latitude":30.6048663,"longitude":62.4292465999999,"taken_at":null,"hi_res_uploaded":0,"for_sale":false,"width":1600,"height":1067,"votes_count":1216,"favorites_count":0,"comments_count":15,"nsfw":false,"sales_count":0,"for_sale_date":null,"highest_rating":99.7,"highest_rating_date":"2017-05-15T18:53:21-04:00","license_type":0,"converted":0,"collections_count":28,"crop_version":0,"privacy":false,"profile":true,"image_url":"https://drscdn.500px.org/photo/212055195/q%3D50_w%3D140_h%3D140/2280c046f95ce9774ce9b32007f6f8da?v=0","images":[{"size":2,"url":"https://drscdn.500px.org/photo/212055195/q%3D50_w%3D140_h%3D140/2280c046f95ce9774ce9b32007f6f8da?v=0","https_url":"https://drscdn.500px.org/photo/212055195/q%3D50_w%3D140_h%3D140/2280c046f95ce9774ce9b32007f6f8da?v=0","format":"jpeg"}],"url":"/photo/212055195/lofoten-sunset-by-tobias-h%C3%A4gg","positive_votes_count":1216,"converted_bits":0,"watermark":false,"image_format":"jpeg","user":{"id":14026643,"username":"Airpixels","firstname":"Tobias","lastname":"Hägg","city":"Stockholm","country":"Sweden","usertype":0,"fullname":"Tobias Hägg","userpic_url":"https://pacdn.500px.org/14026643/d9feb58b3bdabd5bb38c3ec47f57eb3324cd76e4/1.jpg?4","userpic_https_url":"https://pacdn.500px.org/14026643/d9feb58b3bdabd5bb38c3ec47f57eb3324cd76e4/1.jpg?4","cover_url":"https://pacdn.500px.org/14026643/d9feb58b3bdabd5bb38c3ec47f57eb3324cd76e4/cover_2048.jpg?7","upgrade_status":0,"store_on":false,"affection":347246,"avatars":{"default":{"https":"https://pacdn.500px.org/14026643/d9feb58b3bdabd5bb38c3ec47f57eb3324cd76e4/1.jpg?4"},"large":{"https":"https://pacdn.500px.org/14026643/d9feb58b3bdabd5bb38c3ec47f57eb3324cd76e4/2.jpg?4"},"small":{"https":"https://pacdn.500px.org/14026643/d9feb58b3bdabd5bb38c3ec47f57eb3324cd76e4/3.jpg?4"},"tiny":{"https":"https://pacdn.500px.org/14026643/d9feb58b3bdabd5bb38c3ec47f57eb3324cd76e4/4.jpg?4"}}},"licensing_requested":false,"licensing_suggested":false,"is_free_photo":false},{"id":212054339,"user_id":3954102,"name":"Flying Over Plansee","description":"","camera":"FC220","lens":null,"focal_length":"4","iso":"100","shutter_speed":"1/1600","aperture":"2.2","times_viewed":20441,"rating":99.7,"status":1,"created_at":"2017-05-15T09:51:23-04:00","category":8,"location":null,"latitude":47.482187,"longitude":10.832922,"taken_at":"2017-05-12T10:46:50-04:00","hi_res_uploaded":0,"for_sale":false,"width":2048,"height":1532,"votes_count":1147,"favorites_count":0,"comments_count":18,"nsfw":false,"sales_count":0,"for_sale_date":null,"highest_rating":99.7,"highest_rating_date":"2017-05-15T20:34:13-04:00","license_type":0,"converted":0,"collections_count":53,"crop_version":0,"privacy":false,"profile":true,"image_url":"https://drscdn.500px.org/photo/212054339/q%3D50_w%3D140_h%3D140/780c58645139db6d3e4d1ebbbc539f5e?v=0","images":[{"size":2,"url":"https://drscdn.500px.org/photo/212054339/q%3D50_w%3D140_h%3D140/780c58645139db6d3e4d1ebbbc539f5e?v=0","https_url":"https://drscdn.500px.org/photo/212054339/q%3D50_w%3D140_h%3D140/780c58645139db6d3e4d1ebbbc539f5e?v=0","format":"jpeg"}],"url":"/photo/212054339/flying-over-plansee-by-daniel-casson","positive_votes_count":1147,"converted_bits":0,"watermark":false,"image_format":"jpeg","user":{"id":3954102,"username":"daniel-casson1","firstname":"Daniel","lastname":"Casson","city":"Sheffield","country":"England","usertype":0,"fullname":"Daniel Casson","userpic_url":"https://pacdn.500px.org/3954102/9389a70354aeb8312f0a725b6d09ba992139ab54/1.jpg?16","userpic_https_url":"https://pacdn.500px.org/3954102/9389a70354aeb8312f0a725b6d09ba992139ab54/1.jpg?16","cover_url":"https://pacdn.500px.org/3954102/9389a70354aeb8312f0a725b6d09ba992139ab54/cover_2048.jpg?10","upgrade_status":0,"store_on":true,"affection":596250,"avatars":{"default":{"https":"https://pacdn.500px.org/3954102/9389a70354aeb8312f0a725b6d09ba992139ab54/1.jpg?16"},"large":{"https":"https://pacdn.500px.org/3954102/9389a70354aeb8312f0a725b6d09ba992139ab54/2.jpg?16"},"small":{"https":"https://pacdn.500px.org/3954102/9389a70354aeb8312f0a725b6d09ba992139ab54/3.jpg?16"},"tiny":{"https":"https://pacdn.500px.org/3954102/9389a70354aeb8312f0a725b6d09ba992139ab54/4.jpg?16"}}},"licensing_requested":false,"licensing_suggested":false,"is_free_photo":false},{"id":212052979,"user_id":5500778,"name":"A World in the clouds !","description":"My new website <a href=\"https://goo.gl/V0qAtJ\">Landscape and portrait images of Colombia</a> is finally released. Don't hesitate to have a look !\n\nIf you like my work feel free to  follow me on :\n<a href=\"https://goo.gl/O5nAxz\">INSTAGRAM</a> | <a href=\"https://goo.gl/o9mKT9\">FACEBOOK</a>","camera":"Canon EOS 5D Mark III","lens":null,"focal_length":null,"iso":"320","shutter_speed":"1/50","aperture":null,"times_viewed":16074,"rating":99.7,"status":1,"created_at":"2017-05-15T09:40:28-04:00","category":24,"location":null,"latitude":11.1308085241548,"longitude":-73.5056034475565,"taken_at":"2016-02-14T16:44:24-05:00","hi_res_uploaded":0,"for_sale":false,"width":1920,"height":1284,"votes_count":1104,"favorites_count":0,"comments_count":18,"nsfw":false,"sales_count":0,"for_sale_date":null,"highest_rating":99.7,"highest_rating_date":"2017-05-15T21:20:40-04:00","license_type":0,"converted":0,"collections_count":35,"crop_version":0,"privacy":false,"profile":true,"image_url":"https://drscdn.500px.org/photo/212052979/q%3D50_w%3D140_h%3D140/4614c2833d5c2fcf9c2b3fd8d45dda9e?v=0","images":[{"size":2,"url":"https://drscdn.500px.org/photo/212052979/q%3D50_w%3D140_h%3D140/4614c2833d5c2fcf9c2b3fd8d45dda9e?v=0","https_url":"https://drscdn.500px.org/photo/212052979/q%3D50_w%3D140_h%3D140/4614c2833d5c2fcf9c2b3fd8d45dda9e?v=0","format":"jpeg"}],"url":"/photo/212052979/a-world-in-the-clouds-by-tristan-quevilly","positive_votes_count":1104,"converted_bits":0,"watermark":false,"image_format":"jpeg","user":{"id":5500778,"username":"tristan29photography","firstname":"Tristan","lastname":"Quevilly","city":"Santa Marta","country":"Colombia","usertype":0,"fullname":"Tristan Quevilly","userpic_url":"https://pacdn.500px.org/5500778/5743db88c12dbce02af91a35ad685d5ce05a6377/1.jpg?2","userpic_https_url":"https://pacdn.500px.org/5500778/5743db88c12dbce02af91a35ad685d5ce05a6377/1.jpg?2","cover_url":"https://pacdn.500px.org/5500778/5743db88c12dbce02af91a35ad685d5ce05a6377/cover_2048.jpg?9","upgrade_status":0,"store_on":true,"affection":305678,"avatars":{"default":{"https":"https://pacdn.500px.org/5500778/5743db88c12dbce02af91a35ad685d5ce05a6377/1.jpg?2"},"large":{"https":"https://pacdn.500px.org/5500778/5743db88c12dbce02af91a35ad685d5ce05a6377/2.jpg?2"},"small":{"https":"https://pacdn.500px.org/5500778/5743db88c12dbce02af91a35ad685d5ce05a6377/3.jpg?2"},"tiny":{"https":"https://pacdn.500px.org/5500778/5743db88c12dbce02af91a35ad685d5ce05a6377/4.jpg?2"}}},"licensing_requested":false,"licensing_suggested":false,"is_free_photo":false},{"id":212041949,"user_id":75902,"name":"greta","description":"my insta\nhttps://www.instagram.com/maria.svarbova/?hl=en","camera":null,"lens":null,"focal_length":null,"iso":null,"shutter_speed":null,"aperture":null,"times_viewed":24272,"rating":99.7,"status":1,"created_at":"2017-05-15T08:00:25-04:00","category":7,"location":null,"latitude":null,"longitude":null,"taken_at":null,"hi_res_uploaded":0,"for_sale":false,"width":1200,"height":1200,"votes_count":1111,"favorites_count":0,"comments_count":13,"nsfw":false,"sales_count":0,"for_sale_date":null,"highest_rating":99.7,"highest_rating_date":"2017-05-15T20:02:19-04:00","license_type":0,"converted":0,"collections_count":36,"crop_version":0,"privacy":false,"profile":true,"image_url":"https://drscdn.500px.org/photo/212041949/q%3D50_w%3D140_h%3D140/b9b5943ec3fe2495950e6a37a00cfa45?v=0","images":[{"size":2,"url":"https://drscdn.500px.org/photo/212041949/q%3D50_w%3D140_h%3D140/b9b5943ec3fe2495950e6a37a00cfa45?v=0","https_url":"https://drscdn.500px.org/photo/212041949/q%3D50_w%3D140_h%3D140/b9b5943ec3fe2495950e6a37a00cfa45?v=0","format":"jpeg"}],"url":"/photo/212041949/greta-by-maria-svarbova","positive_votes_count":1111,"converted_bits":0,"watermark":false,"image_format":"jpeg","user":{"id":75902,"username":"MariaSvarbova","firstname":"Maria","lastname":"Svarbova","city":"Bratislava","country":"Slovakia","usertype":0,"fullname":"Maria Svarbova","userpic_url":"https://pacdn.500px.org/75902/bde8190e4e69143fbbfd93d05001016169330e11/1.jpg?6","userpic_https_url":"https://pacdn.500px.org/75902/bde8190e4e69143fbbfd93d05001016169330e11/1.jpg?6","cover_url":"https://pacdn.500px.org/75902/bde8190e4e69143fbbfd93d05001016169330e11/cover_2048.jpg?2","upgrade_status":0,"store_on":false,"affection":287891,"avatars":{"default":{"https":"https://pacdn.500px.org/75902/bde8190e4e69143fbbfd93d05001016169330e11/1.jpg?6"},"large":{"https":"https://pacdn.500px.org/75902/bde8190e4e69143fbbfd93d05001016169330e11/2.jpg?6"},"small":{"https":"https://pacdn.500px.org/75902/bde8190e4e69143fbbfd93d05001016169330e11/3.jpg?6"},"tiny":{"https":"https://pacdn.500px.org/75902/bde8190e4e69143fbbfd93d05001016169330e11/4.jpg?6"}}},"licensing_requested":false,"licensing_suggested":false,"is_free_photo":false},{"id":212038657,"user_id":3505746,"name":"Ô paturage","description":null,"camera":"Canon EOS 6D","lens":"EF24-70mm f/4L IS USM","focal_length":"70","iso":"100","shutter_speed":"1/80","aperture":"16","times_viewed":21341,"rating":99.7,"status":1,"created_at":"2017-05-15T07:34:13-04:00","category":8,"location":null,"latitude":null,"longitude":null,"taken_at":"2015-10-11T11:52:14-04:00","hi_res_uploaded":0,"for_sale":false,"width":5472,"height":3648,"votes_count":1356,"favorites_count":0,"comments_count":26,"nsfw":false,"sales_count":0,"for_sale_date":null,"highest_rating":99.7,"highest_rating_date":"2017-05-15T16:07:59-04:00","license_type":0,"converted":0,"collections_count":30,"crop_version":0,"privacy":false,"profile":true,"image_url":"https://drscdn.500px.org/photo/212038657/q%3D50_w%3D140_h%3D140/5eef24ef83c8a84d29eecd0f148222c0?v=0","images":[{"size":2,"url":"https://drscdn.500px.org/photo/212038657/q%3D50_w%3D140_h%3D140/5eef24ef83c8a84d29eecd0f148222c0?v=0","https_url":"https://drscdn.500px.org/photo/212038657/q%3D50_w%3D140_h%3D140/5eef24ef83c8a84d29eecd0f148222c0?v=0","format":"jpeg"}],"url":"/photo/212038657/%C3%94-paturage-by-agn%C3%A8s-perrodon","positive_votes_count":1356,"converted_bits":0,"watermark":false,"image_format":"jpeg","user":{"id":3505746,"username":"agnesperrodon","firstname":"Agnès","lastname":"Perrodon","city":"Lyon","country":"France","usertype":0,"fullname":"Agnès Perrodon","userpic_url":"https://pacdn.500px.org/3505746/d7d52891ce7231065798f999eff95ec34a57bd2b/1.jpg?3","userpic_https_url":"https://pacdn.500px.org/3505746/d7d52891ce7231065798f999eff95ec34a57bd2b/1.jpg?3","cover_url":"https://pacdn.500px.org/3505746/d7d52891ce7231065798f999eff95ec34a57bd2b/cover_2048.jpg?15","upgrade_status":2,"store_on":true,"affection":399424,"avatars":{"default":{"https":"https://pacdn.500px.org/3505746/d7d52891ce7231065798f999eff95ec34a57bd2b/1.jpg?3"},"large":{"https":"https://pacdn.500px.org/3505746/d7d52891ce7231065798f999eff95ec34a57bd2b/2.jpg?3"},"small":{"https":"https://pacdn.500px.org/3505746/d7d52891ce7231065798f999eff95ec34a57bd2b/3.jpg?3"},"tiny":{"https":"https://pacdn.500px.org/3505746/d7d52891ce7231065798f999eff95ec34a57bd2b/4.jpg?3"}}},"licensing_requested":false,"licensing_suggested":false,"is_free_photo":false},{"id":212038007,"user_id":2821295,"name":"***","description":null,"camera":"Canon EOS 5D Mark III","lens":"EF135mm f/2L USM","focal_length":"135","iso":"200","shutter_speed":"1/1600","aperture":"2.8","times_viewed":20243,"rating":99.7,"status":1,"created_at":"2017-05-15T07:27:23-04:00","category":7,"location":null,"latitude":null,"longitude":null,"taken_at":null,"hi_res_uploaded":0,"for_sale":false,"width":1075,"height":1045,"votes_count":1087,"favorites_count":0,"comments_count":13,"nsfw":false,"sales_count":0,"for_sale_date":null,"highest_rating":99.7,"highest_rating_date":"2017-05-15T20:51:09-04:00","license_type":0,"converted":0,"collections_count":115,"crop_version":0,"privacy":false,"profile":true,"image_url":"https://drscdn.500px.org/photo/212038007/q%3D50_w%3D140_h%3D140/6c7b5c4045f56e277fe91feda9751231?v=0","images":[{"size":2,"url":"https://drscdn.500px.org/photo/212038007/q%3D50_w%3D140_h%3D140/6c7b5c4045f56e277fe91feda9751231?v=0","https_url":"https://drscdn.500px.org/photo/212038007/q%3D50_w%3D140_h%3D140/6c7b5c4045f56e277fe91feda9751231?v=0","format":"jpeg"}],"url":"/photo/212038007/-by-%D0%A3%D0%B3%D1%80%D1%8E%D0%BC%D1%8B%D0%B9","positive_votes_count":1087,"converted_bits":0,"watermark":false,"image_format":"jpeg","user":{"id":2821295,"username":"asi7","firstname":"Угрюмый","lastname":"","city":"Краснодар.","country":"","usertype":0,"fullname":"Угрюмый","userpic_url":"https://pacdn.500px.org/2821295/5284714aeba0632d5ebb68916923dc5ed9fdf665/1.jpg?8","userpic_https_url":"https://pacdn.500px.org/2821295/5284714aeba0632d5ebb68916923dc5ed9fdf665/1.jpg?8","cover_url":null,"upgrade_status":0,"store_on":true,"affection":837106,"avatars":{"default":{"https":"https://pacdn.500px.org/2821295/5284714aeba0632d5ebb68916923dc5ed9fdf665/1.jpg?8"},"large":{"https":"https://pacdn.500px.org/2821295/5284714aeba0632d5ebb68916923dc5ed9fdf665/2.jpg?8"},"small":{"https":"https://pacdn.500px.org/2821295/5284714aeba0632d5ebb68916923dc5ed9fdf665/3.jpg?8"},"tiny":{"https":"https://pacdn.500px.org/2821295/5284714aeba0632d5ebb68916923dc5ed9fdf665/4.jpg?8"}}},"licensing_requested":false,"licensing_suggested":false,"is_free_photo":false}],"filters":{"category":false,"exclude":false},"feature":"popular", "PageNumber": 1}
