{"current_page":1,"total_pages":1000,"total_items":48766,"photos":[{"id":22390871,"user_id":1737511,"name":"beginning of the end","description":"Just two drops..","camera":"Canon EOS 600D","lens":"","focal_length":"45","iso":"100","shutter_speed":"1","aperture":"18","times_viewed":1493,"rating":48.0,"status":1,"created_at":"2013-01-05T15:33:55-05:00","category":12,"location":null,"latitude":null,"longitude":null,"taken_at":"2012-02-18T07:56:22-05:00","hi_res_uploaded":1,"for_sale":true,"width":3605,"height":2879,"votes_count":48,"favorites_count":21,"comments_count":27,"nsfw":false,"sales_count":0,"for_sale_date":null,"highest_rating":92.4,"highest_rating_date":"2013-01-05T20:15:49-05:00","license_type":0,"converted":31,"collections_count":-1,"crop_version":1,"privacy":false,"profile":true,"image_url":"https://drscdn.500px.org/photo/22390871/q%3D50_w%3D140_h%3D140/0b69f8d2c6171b798a11730ce55fff5b?v=1","images":[{"size":2,"url":"https://drscdn.500px.org/photo/22390871/q%3D50_w%3D140_h%3D140/0b69f8d2c6171b798a11730ce55fff5b?v=1","https_url":"https://drscdn.500px.org/photo/22390871/q%3D50_w%3D140_h%3D140/0b69f8d2c6171b798a11730ce55fff5b?v=1","format":"jpeg"}],"url":"/photo/22390871/beginning-of-the-end-by-mukerrem-misirlioglu","positive_votes_count":48,"converted_bits":31,"watermark":false,"image_format":"jpeg","licensing_requested":false,"licensing_suggested":false,"is_free_photo":false,"user":{"id":1737511,"username":"MukerremMisirlioglu","firstname":"Mukerrem","lastname":"Misirlioglu","city":"Istanbul","country":"Türkiye","usertype":0,"fullname":"Mukerrem Misirlioglu","userpic_url":"https://pacdn.500px.org/1737511/98473c66087f5793e83e685608e2545f5110de6b/1.jpg?1","userpic_https_url":"https://pacdn.500px.org/1737511/98473c66087f5793e83e685608e2545f5110de6b/1.jpg?1","cover_url":"https://pacdn.500px.org/1737511/98473c66087f5793e83e685608e2545f5110de6b/cover_2048.jpg?1","upgrade_status":0,"store_on":true,"affection":5254,"avatars":{"default":{"https":"https://pacdn.500px.org/1737511/98473c66087f5793e83e685608e2545f5110de6b/1.jpg?1"},"large":{"https":"https://pacdn.500px.org/1737511/98473c66087f5793e83e685608e2545f5110de6b/2.jpg?1"},"small":{"https":"https://pacdn.500px.org/1737511/98473c66087f5793e83e685608e2545f5110de6b/3.jpg?1"},"tiny":{"https":"https://pacdn.500px.org/1737511/98473c66087f5793e83e685608e2545f5110de6b/4.jpg?1"}},"followers_count":348}},{"id":8924034,"user_id":934384,"name":"Life of Man - The Way of Man.","description":"There's a bend in the fog of uncertainty, alluring, and calling a reality - life path - Feed! For this, we arrive here and to travel in this thread.","camera":"NIKON D80","lens":"","focal_length":"18","iso":"100","shutter_speed":"13","aperture":"8","times_viewed":605,"rating":36.1,"status":1,"created_at":"2012-06-26T16:22:59-04:00","category":18,"location":null,"latitude":null,"longitude":null,"taken_at":"2009-07-07T23:42:48-04:00","hi_res_uploaded":2,"for_sale":true,"width":3872,"height":2592,"votes_count":5,"favorites_count":2,"comments_count":8,"nsfw":false,"sales_count":0,"for_sale_date":null,"highest_rating":57.8,"highest_rating_date":"2012-07-03T06:27:38-04:00","license_type":0,"converted":27,"collections_count":0,"crop_version":2,"privacy":false,"profile":true,"image_url":"https://drscdn.500px.org/photo/8924034/q%3D50_w%3D140_h%3D140/f5a3c5c5b75c9dcbf01a133e9c29e094?v=2","images":[{"size":2,"url":"https://drscdn.500px.org/photo/8924034/q%3D50_w%3D140_h%3D140/f5a3c5c5b75c9dcbf01a133e9c29e094?v=2","https_url":"https://drscdn.500px.org/photo/8924034/q%3D50_w%3D140_h%3D140/f5a3c5c5b75c9dcbf01a133e9c29e094?v=2","format":"jpeg"}],"url":"/photo/8924034/life-of-man-the-way-of-man-by-orlov-sergei","positive_votes_count":5,"converted_bits":27,"watermark":false,"image_format":"jpeg","licensing_requested":false,"licensing_suggested":false,"is_free_photo":false,"user":{"id":934384,"username":"ooorll","firstname":"Orlov","lastname":"Sergei","city":"Moscow","country":"Russia","usertype":0,"fullname":"Orlov Sergei","userpic_url":"https://pacdn.500px.org/934384/b678e75fb48014d047dbc894b744d74f16a75626/1.jpg?1","userpic_https_url":"https://pacdn.500px.org/934384/b678e75fb48014d047dbc894b744d74f16a75626/1.jpg?1","cover_url":null,"upgrade_status":0,"store_on":true,"affection":107,"avatars":{"default":{"https":"https://pacdn.500px.org/934384/b678e75fb48014d047dbc894b744d74f16a75626/1.jpg?1"},"large":{"https":"https://pacdn.500px.org/934384/b678e75fb48014d047dbc894b744d74f16a75626/2.jpg?1"},"small":{"https":"https://pacdn.500px.org/934384/b678e75fb48014d047dbc894b744d74f16a75626/3.jpg?1"},"tiny":{"https":"https://pacdn.500px.org/934384/b678e75fb48014d047dbc894b744d74f16a75626/4.jpg?1"}},"followers_count":22}},{"id":102982683,"user_id":12090709,"name":"Starry sky","description":"Mount Kinabalu Star","camera":"NIKON D610","lens":"24.0-70.0 mm f/2.8","focal_length":"24","iso":"1250","shutter_speed":"30","aperture":"8","times_viewed":1248,"rating":37.5,"status":1,"created_at":"2015-03-26T13:06:06-04:00","category":8,"location":null,"latitude":6.00945923805955,"longitude":116.19140625,"taken_at":"2015-03-01T01:47:30-05:00","hi_res_uploaded":2,"for_sale":true,"width":6016,"height":4016,"votes_count":12,"favorites_count":3,"comments_count":0,"nsfw":false,"sales_count":0,"for_sale_date":null,"highest_rating":64.2,"highest_rating_date":"2015-03-28T06:57:05-04:00","license_type":0,"converted":31,"collections_count":1,"crop_version":10,"privacy":false,"profile":true,"image_url":"https://drscdn.500px.org/photo/102982683/q%3D50_w%3D140_h%3D140/3310df45ac99839bab7f1ba95bcef532?v=10","images":[{"size":2,"url":"https://drscdn.500px.org/photo/102982683/q%3D50_w%3D140_h%3D140/3310df45ac99839bab7f1ba95bcef532?v=10","https_url":"https://drscdn.500px.org/photo/102982683/q%3D50_w%3D140_h%3D140/3310df45ac99839bab7f1ba95bcef532?v=10","format":"jpeg"}],"url":"/photo/102982683/starry-sky-by-mr-%E4%B8%9C%E5%B1%B1","positive_votes_count":12,"converted_bits":31,"watermark":false,"image_format":"jpeg","licensing_requested":false,"licensing_suggested":false,"is_free_photo":false,"user":{"id":12090709,"username":"eastonchen123","firstname":"Mr.东山","lastname":"","city":"Guangzhou","country":"china","usertype":0,"fullname":"Mr.东山","userpic_url":"https://pacdn.500px.org/12090709/d09460fded49960deade9774ace572abecbaf7f2/1.jpg?1","userpic_https_url":"https://pacdn.500px.org/12090709/d09460fded49960deade9774ace572abecbaf7f2/1.jpg?1","cover_url":"https://pacdn.500px.org/12090709/d09460fded49960deade9774ace572abecbaf7f2/cover_2048.jpg?1","upgrade_status":0,"store_on":true,"affection":5653,"avatars":{"default":{"https":"https://pacdn.500px.org/12090709/d09460fded49960deade9774ace572abecbaf7f2/1.jpg?1"},"large":{"https":"https://pacdn.500px.org/12090709/d09460fded49960deade9774ace572abecbaf7f2/2.jpg?1"},"small":{"https":"https://pacdn.500px.org/12090709/d09460fded49960deade9774ace572abecbaf7f2/3.jpg?1"},"tiny":{"https":"https://pacdn.500px.org/12090709/d09460fded49960deade9774ace572abecbaf7f2/4.jpg?1"}},"followers_count":41}},{"id":198771061,"user_id":683534,"name":"Small man in the big trip","description":"Huge world","camera":"Canon EOS 5D Mark II","lens":"EF15mm f/2.8 Fisheye","focal_length":"15","iso":"1250","shutter_speed":"1/6","aperture":"3.2","times_viewed":615,"rating":45.3,"status":1,"created_at":"2017-02-16T21:31:52-05:00","category":27,"location":null,"latitude":25.2048493,"longitude":55.2707828,"taken_at":null,"hi_res_uploaded":0,"for_sale":false,"width":5472,"height":3202,"votes_count":30,"favorites_count":0,"comments_count":0,"nsfw":false,"sales_count":0,"for_sale_date":null,"highest_rating":89.9,"highest_rating_date":"2017-02-17T13:41:26-05:00","license_type":0,"converted":0,"collections_count":2,"crop_version":0,"privacy":false,"profile":true,"image_url":"https://drscdn.500px.org/photo/198771061/q%3D50_w%3D140_h%3D140/0c45ccac03a261ed6ea40e1bd684c3da?v=0","images":[{"size":2,"url":"https://drscdn.500px.org/photo/198771061/q%3D50_w%3D140_h%3D140/0c45ccac03a261ed6ea40e1bd684c3da?v=0","https_url":"https://drscdn.500px.org/photo/198771061/q%3D50_w%3D140_h%3D140/0c45ccac03a261ed6ea40e1bd684c3da?v=0","format":"jpeg"}],"url":"/photo/198771061/small-man-in-the-big-trip-by-anton-savemoment","positive_votes_count":30,"converted_bits":0,"watermark":true,"image_format":"jpeg","licensing_requested":false,"licensing_suggested":false,"is_free_photo":false,"user":{"id":683534,"username":"AntonSM","firstname":"Anton","lastname":"SaveMoment","city":"Goa","country":"India","usertype":0,"fullname":"Anton SaveMoment","userpic_url":"https://pacdn.500px.org/683534/b4f54aadd30c43ad9a9abef8e16537c9c9174024/1.jpg?54","userpic_https_url":"https://pacdn.500px.org/683534/b4f54aadd30c43ad9a9abef8e16537c9c9174024/1.jpg?54","cover_url":"https://pacdn.500px.org/683534/b4f54aadd30c43ad9a9abef8e16537c9c9174024/cover_2048.jpg?4","upgrade_status":2,"store_on":true,"affection":4570,"avatars":{"default":{"https":"https://pacdn.500px.org/683534/b4f54aadd30c43ad9a9abef8e16537c9c9174024/1.jpg?54"},"large":{"https":"https://pacdn.500px.org/683534/b4f54aadd30c43ad9a9abef8e16537c9c9174024/2.jpg?54"},"small":{"https":"https://pacdn.500px.org/683534/b4f54aadd30c43ad9a9abef8e16537c9c9174024/3.jpg?54"},"tiny":{"https":"https://pacdn.500px.org/683534/b4f54aadd30c43ad9a9abef8e16537c9c9174024/4.jpg?54"}},"followers_count":75}},{"id":149550023,"user_id":15731063,"name":"Planet","description":"Country road on the planet \"Earth\" ..","camera":null,"lens":null,"focal_length":null,"iso":null,"shutter_speed":null,"aperture":null,"times_viewed":499,"rating":44.5,"status":1,"created_at":"2016-04-16T12:33:25-04:00","category":18,"location":null,"latitude":54.957535663375,"longitude":36.109631730651,"taken_at":null,"hi_res_uploaded":0,"for_sale":false,"width":3800,"height":1974,"votes_count":43,"favorites_count":0,"comments_count":3,"nsfw":false,"sales_count":0,"for_sale_date":null,"highest_rating":84.1,"highest_rating_date":"2016-04-17T10:07:01-04:00","license_type":0,"converted":27,"collections_count":2,"crop_version":3,"privacy":false,"profile":true,"image_url":"https://drscdn.500px.org/photo/149550023/q%3D50_w%3D140_h%3D140/43fb1172919f7b8bfae63063ceb0cacb?v=3","images":[{"size":2,"url":"https://drscdn.500px.org/photo/149550023/q%3D50_w%3D140_h%3D140/43fb1172919f7b8bfae63063ceb0cacb?v=3","https_url":"https://drscdn.500px.org/photo/149550023/q%3D50_w%3D140_h%3D140/43fb1172919f7b8bfae63063ceb0cacb?v=3","format":"jpeg"}],"url":"/photo/149550023/planet-by-vladimir-volodin","positive_votes_count":43,"converted_bits":27,"watermark":false,"image_format":"jpeg","licensing_requested":false,"licensing_suggested":false,"is_free_photo":false,"user":{"id":15731063,"username":"volodin-design","firstname":"Vladimir","lastname":"Volodin","city":"Obninsk","country":"Russia","usertype":0,"fullname":"Vladimir Volodin","userpic_url":"https://pacdn.500px.org/15731063/8285302190f44d8bd2d624197cf61bec554a9b80/1.jpg?1","userpic_https_url":"https://pacdn.500px.org/15731063/8285302190f44d8bd2d624197cf61bec554a9b80/1.jpg?1","cover_url":"https://pacdn.500px.org/15731063/8285302190f44d8bd2d624197cf61bec554a9b80/cover_original.jpg?43","upgrade_status":0,"store_on":true,"affection":25866,"avatars":{"default":{"https":"https://pacdn.500px.org/15731063/8285302190f44d8bd2d624197cf61bec554a9b80/1.jpg?1"},"large":{"https":"https://pacdn.500px.org/15731063/8285302190f44d8bd2d624197cf61bec554a9b80/2.jpg?1"},"small":{"https":"https://pacdn.500px.org/15731063/8285302190f44d8bd2d624197cf61bec554a9b80/3.jpg?1"},"tiny":{"https":"https://pacdn.500px.org/15731063/8285302190f44d8bd2d624197cf61bec554a9b80/4.jpg?1"}},"followers_count":505}},{"id":15544417,"user_id":471603,"name":"COSMOS","description":"","camera":"Canon EOS 5D Mark II","lens":"","focal_length":"105","iso":"320","shutter_speed":"1/3200","aperture":"5.6","times_viewed":7403,"rating":47.9,"status":1,"created_at":"2012-10-09T10:25:25-04:00","category":18,"location":null,"latitude":36.1618830344997,"longitude":139.781341552734,"taken_at":"2012-10-06T07:11:41-04:00","hi_res_uploaded":2,"for_sale":true,"width":3744,"height":5616,"votes_count":57,"favorites_count":18,"comments_count":14,"nsfw":false,"sales_count":1,"for_sale_date":null,"highest_rating":90.6,"highest_rating_date":"2012-10-10T01:47:14-04:00","license_type":0,"converted":31,"collections_count":5,"crop_version":2,"privacy":false,"profile":true,"image_url":"https://drscdn.500px.org/photo/15544417/q%3D50_w%3D140_h%3D140/c81180725431226c5446826278781917?v=2","images":[{"size":2,"url":"https://drscdn.500px.org/photo/15544417/q%3D50_w%3D140_h%3D140/c81180725431226c5446826278781917?v=2","https_url":"https://drscdn.500px.org/photo/15544417/q%3D50_w%3D140_h%3D140/c81180725431226c5446826278781917?v=2","format":"jpeg"}],"url":"/photo/15544417/cosmos-by-kyoko-nakamura","positive_votes_count":57,"converted_bits":31,"watermark":false,"image_format":"jpeg","licensing_requested":false,"licensing_suggested":false,"is_free_photo":false,"user":{"id":471603,"username":"greenkyoko","firstname":"Kyoko","lastname":"Nakamura","city":"Tokyo","country":"japan","usertype":0,"fullname":"Kyoko Nakamura","userpic_url":"https://pacdn.500px.org/471603/8fe0341939ee6caed1c24ed7ad6ddf607d53b518/1.jpg?2","userpic_https_url":"https://pacdn.500px.org/471603/8fe0341939ee6caed1c24ed7ad6ddf607d53b518/1.jpg?2","cover_url":null,"upgrade_status":0,"store_on":true,"affection":1991,"avatars":{"default":{"https":"https://pacdn.500px.org/471603/8fe0341939ee6caed1c24ed7ad6ddf607d53b518/1.jpg?2"},"large":{"https":"https://pacdn.500px.org/471603/8fe0341939ee6caed1c24ed7ad6ddf607d53b518/2.jpg?2"},"small":{"https":"https://pacdn.500px.org/471603/8fe0341939ee6caed1c24ed7ad6ddf607d53b518/3.jpg?2"},"tiny":{"https":"https://pacdn.500px.org/471603/8fe0341939ee6caed1c24ed7ad6ddf607d53b518/4.jpg?2"}},"followers_count":128,"following":false}},{"id":15194535,"user_id":1370939,"name":"the color of autumn","description":"the color of autumn","camera":"Nikon D700","lens":"","focal_length":"35","iso":"400","shutter_speed":"1/125","aperture":"8","times_viewed":7008,"rating":47.6,"status":1,"created_at":"2012-10-04T08:20:02-04:00","category":8,"location":null,"latitude":null,"longitude":null,"taken_at":"2011-10-23T03:20:03-04:00","hi_res_uploaded":1,"for_sale":true,"width":1200,"height":800,"votes_count":52,"favorites_count":11,"comments_count":9,"nsfw":false,"sales_count":0,"for_sale_date":null,"highest_rating":91.2,"highest_rating_date":"2012-10-05T04:34:53-04:00","license_type":0,"converted":31,"collections_count":5,"crop_version":2,"privacy":false,"profile":true,"image_url":"https://drscdn.500px.org/photo/15194535/q%3D50_w%3D140_h%3D140/be2a41bb6ffaaca55ae0c4f919b2ce8f?v=2","images":[{"size":2,"url":"https://drscdn.500px.org/photo/15194535/q%3D50_w%3D140_h%3D140/be2a41bb6ffaaca55ae0c4f919b2ce8f?v=2","https_url":"https://drscdn.500px.org/photo/15194535/q%3D50_w%3D140_h%3D140/be2a41bb6ffaaca55ae0c4f919b2ce8f?v=2","format":"jpeg"}],"url":"/photo/15194535/the-color-of-autumn-by-dae-heung-kang","positive_votes_count":52,"converted_bits":31,"watermark":false,"image_format":"jpeg","licensing_requested":false,"licensing_suggested":false,"is_free_photo":false,"user":{"id":1370939,"username":"Dae-heungKang","firstname":"Dae-heung","lastname":"Kang","city":"In cheon","country":"Korea","usertype":0,"fullname":"Dae-heung Kang","userpic_url":"https://pacdn.500px.org/1370939/5a282118a192f1738956d27cc3c86b6d70fba46d/1.jpg?3","userpic_https_url":"https://pacdn.500px.org/1370939/5a282118a192f1738956d27cc3c86b6d70fba46d/1.jpg?3","cover_url":"https://pacdn.500px.org/1370939/5a282118a192f1738956d27cc3c86b6d70fba46d/cover_2048.jpg?6","upgrade_status":0,"store_on":true,"affection":4549,"avatars":{"default":{"https":"https://pacdn.500px.org/1370939/5a282118a192f1738956d27cc3c86b6d70fba46d/1.jpg?3"},"large":{"https":"https://pacdn.500px.org/1370939/5a282118a192f1738956d27cc3c86b6d70fba46d/2.jpg?3"},"small":{"https":"https://pacdn.500px.org/1370939/5a282118a192f1738956d27cc3c86b6d70fba46d/3.jpg?3"},"tiny":{"https":"https://pacdn.500px.org/1370939/5a282118a192f1738956d27cc3c86b6d70fba46d/4.jpg?3"}},"followers_count":61}},{"id":67124929,"user_id":4357182,"name":"Starry Night","description":"Starry Night in Africa","camera":"NIKON D7100","lens":null,"focal_length":"14","iso":"1600","shutter_speed":"18","aperture":"2.8","times_viewed":23116,"rating":48.8,"status":1,"created_at":"2014-04-15T12:34:52-04:00","category":8,"location":null,"latitude":-25.2745035178202,"longitude":30.0640869140625,"taken_at":"2014-01-02T23:36:09-05:00","hi_res_uploaded":2,"for_sale":true,"width":6000,"height":4000,"votes_count":106,"favorites_count":17,"comments_count":2,"nsfw":false,"sales_count":1,"for_sale_date":null,"highest_rating":88.3,"highest_rating_date":"2014-04-16T03:31:34-04:00","license_type":0,"converted":31,"collections_count":17,"crop_version":0,"privacy":false,"profile":true,"image_url":"https://drscdn.500px.org/photo/67124929/q%3D50_w%3D140_h%3D140/13fbcba8a8b85031e2e36383b78eb7d7?v=0","images":[{"size":2,"url":"https://drscdn.500px.org/photo/67124929/q%3D50_w%3D140_h%3D140/13fbcba8a8b85031e2e36383b78eb7d7?v=0","https_url":"https://drscdn.500px.org/photo/67124929/q%3D50_w%3D140_h%3D140/13fbcba8a8b85031e2e36383b78eb7d7?v=0","format":"jpeg"}],"url":"/photo/67124929/starry-night-by-ruaan-uys","positive_votes_count":106,"converted_bits":31,"watermark":true,"image_format":"jpeg","licensing_requested":false,"licensing_suggested":false,"is_free_photo":false,"user":{"id":4357182,"username":"ruaanuys","firstname":"Ruaan","lastname":"Uys","city":"Johannesburg","country":"South Africa","usertype":0,"fullname":"Ruaan Uys","userpic_url":"https://pacdn.500px.org/4357182/dd469f5f281ecf65cdf0585a1fef351c1bf5f5a0/1.jpg?2","userpic_https_url":"https://pacdn.500px.org/4357182/dd469f5f281ecf65cdf0585a1fef351c1bf5f5a0/1.jpg?2","cover_url":"https://pacdn.500px.org/4357182/dd469f5f281ecf65cdf0585a1fef351c1bf5f5a0/cover_2048.jpg?6","upgrade_status":0,"store_on":true,"affection":365,"avatars":{"default":{"https":"https://pacdn.500px.org/4357182/dd469f5f281ecf65cdf0585a1fef351c1bf5f5a0/1.jpg?2"},"large":{"https":"https://pacdn.500px.org/4357182/dd469f5f281ecf65cdf0585a1fef351c1bf5f5a0/2.jpg?2"},"small":{"https":"https://pacdn.500px.org/4357182/dd469f5f281ecf65cdf0585a1fef351c1bf5f5a0/3.jpg?2"},"tiny":{"https":"https://pacdn.500px.org/4357182/dd469f5f281ecf65cdf0585a1fef351c1bf5f5a0/4.jpg?2"}},"followers_count":8}},{"id":70090967,"user_id":4425796,"name":"The moon","description":"Welcome to my site www.Under-Stars.com\n\nThe Moon (Latin: Luna) is the Earth's only natural satellite. Although not the largest natural satellite in the Solar System, it is the largest relative to the size of the object it orbits (its primary)  and, after Jupiter's satellite Io, it is the second most dense satellite among those whose densities are known.\n\nMosaic of 21 frames","camera":"Nikon D5000","lens":"Sky Watcher MAK127 + Barlow lens 3х","focal_length":"4500","iso":"400","shutter_speed":null,"aperture":"12","times_viewed":26137,"rating":49.7,"status":1,"created_at":"2014-05-11T06:29:34-04:00","category":18,"location":null,"latitude":52.5652385292663,"longitude":30.8753156661987,"taken_at":null,"hi_res_uploaded":2,"for_sale":true,"width":4000,"height":5500,"votes_count":383,"favorites_count":111,"comments_count":24,"nsfw":false,"sales_count":1,"for_sale_date":null,"highest_rating":91.7,"highest_rating_date":"2014-05-12T02:18:54-04:00","license_type":0,"converted":31,"collections_count":76,"crop_version":0,"privacy":false,"profile":true,"image_url":"https://drscdn.500px.org/photo/70090967/q%3D50_w%3D140_h%3D140/38396f3fd1c60b2eef9c04e839c09f67?v=0","images":[{"size":2,"url":"https://drscdn.500px.org/photo/70090967/q%3D50_w%3D140_h%3D140/38396f3fd1c60b2eef9c04e839c09f67?v=0","https_url":"https://drscdn.500px.org/photo/70090967/q%3D50_w%3D140_h%3D140/38396f3fd1c60b2eef9c04e839c09f67?v=0","format":"jpeg"}],"url":"/photo/70090967/the-moon-by-nikita-kharlanov","positive_votes_count":383,"converted_bits":31,"watermark":false,"image_format":"jpeg","licensing_requested":false,"licensing_suggested":false,"is_free_photo":false,"user":{"id":4425796,"username":"under-stars","firstname":"Nikita","lastname":"Kharlanov","city":"Homel","country":"Belarus","usertype":0,"fullname":"Nikita Kharlanov","userpic_url":"https://pacdn.500px.org/4425796/28dcae57d7683c80bfa12c85a56260cbb9d23d66/1.jpg?3","userpic_https_url":"https://pacdn.500px.org/4425796/28dcae57d7683c80bfa12c85a56260cbb9d23d66/1.jpg?3","cover_url":"https://pacdn.500px.org/4425796/28dcae57d7683c80bfa12c85a56260cbb9d23d66/cover_original.jpg?45","upgrade_status":0,"store_on":true,"affection":6452,"avatars":{"default":{"https":"https://pacdn.500px.org/4425796/28dcae57d7683c80bfa12c85a56260cbb9d23d66/1.jpg?3"},"large":{"https":"https://pacdn.500px.org/4425796/28dcae57d7683c80bfa12c85a56260cbb9d23d66/2.jpg?3"},"small":{"https":"https://pacdn.500px.org/4425796/28dcae57d7683c80bfa12c85a56260cbb9d23d66/3.jpg?3"},"tiny":{"https":"https://pacdn.500px.org/4425796/28dcae57d7683c80bfa12c85a56260cbb9d23d66/4.jpg?3"}},"followers_count":135}},{"id":47358800,"user_id":74544,"name":"Special Stars","description":"The milky way surrounded by twinkling stars.","camera":"NIKON D600","lens":null,"focal_length":"14","iso":"3200","shutter_speed":"30","aperture":"2.8","times_viewed":59815,"rating":49.5,"status":1,"created_at":"2013-09-24T22:45:41-04:00","category":8,"location":null,"latitude":50.12615,"longitude":-122.936755,"taken_at":"2013-09-15T04:30:51-04:00","hi_res_uploaded":2,"for_sale":true,"width":3471,"height":5199,"votes_count":265,"favorites_count":71,"comments_count":13,"nsfw":false,"sales_count":0,"for_sale_date":null,"highest_rating":87.0,"highest_rating_date":"2013-09-25T10:25:44-04:00","license_type":0,"converted":31,"collections_count":48,"crop_version":0,"privacy":false,"profile":true,"image_url":"https://drscdn.500px.org/photo/47358800/q%3D50_w%3D140_h%3D140/8fb582dd2e9a5faeeb95f6130bf32355?v=0","images":[{"size":2,"url":"https://drscdn.500px.org/photo/47358800/q%3D50_w%3D140_h%3D140/8fb582dd2e9a5faeeb95f6130bf32355?v=0","https_url":"https://drscdn.500px.org/photo/47358800/q%3D50_w%3D140_h%3D140/8fb582dd2e9a5faeeb95f6130bf32355?v=0","format":"jpeg"}],"url":"/photo/47358800/special-stars-by-james-wheeler","positive_votes_count":265,"converted_bits":31,"watermark":false,"image_format":"jpeg","licensing_requested":false,"licensing_suggested":false,"is_free_photo":false,"user":{"id":74544,"username":"JamesWheeler","firstname":"James","lastname":"Wheeler","city":"Pitt Meadows","country":"Canada","usertype":0,"fullname":"James Wheeler","userpic_url":"https://pacdn.500px.org/74544/14d8abad70eb4392caa48c1b0be71b9d5efef3ea/1.jpg?9","userpic_https_url":"https://pacdn.500px.org/74544/14d8abad70eb4392caa48c1b0be71b9d5efef3ea/1.jpg?9","cover_url":"https://pacdn.500px.org/74544/14d8abad70eb4392caa48c1b0be71b9d5efef3ea/cover_2048.jpg?8","upgrade_status":2,"store_on":true,"affection":20630,"avatars":{"default":{"https":"https://pacdn.500px.org/74544/14d8abad70eb4392caa48c1b0be71b9d5efef3ea/1.jpg?9"},"large":{"https":"https://pacdn.500px.org/74544/14d8abad70eb4392caa48c1b0be71b9d5efef3ea/2.jpg?9"},"small":{"https":"https://pacdn.500px.org/74544/14d8abad70eb4392caa48c1b0be71b9d5efef3ea/3.jpg?9"},"tiny":{"https":"https://pacdn.500px.org/74544/14d8abad70eb4392caa48c1b0be71b9d5efef3ea/4.jpg?9"}},"followers_count":1036}}]}